Modelling Group,Climate Model,Scenario,Reference
NCC,NorESM1-M,1pctCO2,\citet{cmip5data_NorESM1-M_1pctCO2}
NCC,NorESM1-M,abrupt4xCO2,\citet{cmip5data_NorESM1-M_abrupt4xCO2}
NCC,NorESM1-M,amip,\citet{cmip5data_NorESM1-M_amip}
NCC,NorESM1-M,historical,\citet{cmip5data_NorESM1-M_historical}
NCC,NorESM1-M,historicalExt,\citet{cmip5data_NorESM1-M_historicalExt}
NCC,NorESM1-M,historicalGHG,\citet{cmip5data_NorESM1-M_historicalGHG}
NCC,NorESM1-M,historicalMisc,\citet{cmip5data_NorESM1-M_historicalMisc}
NCC,NorESM1-M,historicalNat,\citet{cmip5data_NorESM1-M_historicalNat}
NCC,NorESM1-M,piControl,\citet{cmip5data_NorESM1-M_piControl}
NCC,NorESM1-M,rcp26,\citet{cmip5data_NorESM1-M_rcp26}
NCC,NorESM1-M,rcp45,\citet{cmip5data_NorESM1-M_rcp45}
NCC,NorESM1-M,rcp60,\citet{cmip5data_NorESM1-M_rcp60}
NCC,NorESM1-M,rcp85,\citet{cmip5data_NorESM1-M_rcp85}
IPSL,IPSL-CM5A-LR,1pctCO2,\citet{cmip5data_IPSL-CM5A-LR_1pctCO2}
IPSL,IPSL-CM5A-LR,abrupt4xCO2,\citet{cmip5data_IPSL-CM5A-LR_abrupt4xCO2}
IPSL,IPSL-CM5A-LR,esmFdbk1,\citet{cmip5data_IPSL-CM5A-LR_esmFdbk1}
IPSL,IPSL-CM5A-LR,esmFixClim2,\citet{cmip5data_IPSL-CM5A-LR_esmFixClim2}
IPSL,IPSL-CM5A-LR,historical,\citet{cmip5data_IPSL-CM5A-LR_historical}
IPSL,IPSL-CM5A-LR,historicalGHG,\citet{cmip5data_IPSL-CM5A-LR_historicalGHG}
IPSL,IPSL-CM5A-LR,historicalMisc,\citet{cmip5data_IPSL-CM5A-LR_historicalMisc}
IPSL,IPSL-CM5A-LR,historicalNat,\citet{cmip5data_IPSL-CM5A-LR_historicalNat}
IPSL,IPSL-CM5A-LR,piControl,\citet{cmip5data_IPSL-CM5A-LR_piControl}
IPSL,IPSL-CM5A-LR,rcp26,\citet{cmip5data_IPSL-CM5A-LR_rcp26}
IPSL,IPSL-CM5A-LR,rcp45,\citet{cmip5data_IPSL-CM5A-LR_rcp45}
IPSL,IPSL-CM5A-LR,rcp60,\citet{cmip5data_IPSL-CM5A-LR_rcp60}
IPSL,IPSL-CM5A-LR,rcp85,\citet{cmip5data_IPSL-CM5A-LR_rcp85}
NOAA GFDL,GFDL-ESM2G,1pctCO2,\citet{cmip5data_GFDL-ESM2G_1pctCO2}
NOAA GFDL,GFDL-ESM2G,historicalMisc,\citet{cmip5data_GFDL-ESM2G_historicalMisc}
NOAA GFDL,GFDL-CM3,1pctCO2,\citet{cmip5data_GFDL-CM3_1pctCO2}
NOAA GFDL,GFDL-CM3,abrupt4xCO2,\citet{cmip5data_GFDL-CM3_abrupt4xCO2}
NOAA GFDL,GFDL-CM3,historical,\citet{cmip5data_GFDL-CM3_historical}
NOAA GFDL,GFDL-CM3,historicalGHG,\citet{cmip5data_GFDL-CM3_historicalGHG}
NOAA GFDL,GFDL-CM3,historicalMisc,\citet{cmip5data_GFDL-CM3_historicalMisc}
NOAA GFDL,GFDL-CM3,historicalNat,\citet{cmip5data_GFDL-CM3_historicalNat}
NOAA GFDL,GFDL-CM3,rcp26,\citet{cmip5data_GFDL-CM3_rcp26}
NOAA GFDL,GFDL-CM3,rcp45,\citet{cmip5data_GFDL-CM3_rcp45}
NOAA GFDL,GFDL-CM3,rcp60,\citet{cmip5data_GFDL-CM3_rcp60}
NOAA GFDL,GFDL-CM3,rcp85,\citet{cmip5data_GFDL-CM3_rcp85}
NASA GISS,GISS-E2-H,1pctCO2,\citet{cmip5data_GISS-E2-H_1pctCO2}
NASA GISS,GISS-E2-H,abrupt4xCO2,\citet{cmip5data_GISS-E2-H_abrupt4xCO2}
NASA GISS,GISS-E2-H,historical,\citet{cmip5data_GISS-E2-H_historical}
NASA GISS,GISS-E2-H,historicalExt,\citet{cmip5data_GISS-E2-H_historicalExt}
NASA GISS,GISS-E2-H,historicalGHG,\citet{cmip5data_GISS-E2-H_historicalGHG}
NASA GISS,GISS-E2-H,historicalMisc,\citet{cmip5data_GISS-E2-H_historicalMisc}
NASA GISS,GISS-E2-H,historicalNat,\citet{cmip5data_GISS-E2-H_historicalNat}
NASA GISS,GISS-E2-H,piControl,\citet{cmip5data_GISS-E2-H_piControl}
NASA GISS,GISS-E2-H,rcp26,\citet{cmip5data_GISS-E2-H_rcp26}
NASA GISS,GISS-E2-H,rcp45,\citet{cmip5data_GISS-E2-H_rcp45}
NASA GISS,GISS-E2-H,rcp60,\citet{cmip5data_GISS-E2-H_rcp60}
NASA GISS,GISS-E2-H,rcp85,\citet{cmip5data_GISS-E2-H_rcp85}
NOAA GFDL,GFDL-ESM2M,1pctCO2,\citet{cmip5data_GFDL-ESM2M_1pctCO2}
NOAA GFDL,GFDL-ESM2M,historicalGHG,\citet{cmip5data_GFDL-ESM2M_historicalGHG}
NOAA GFDL,GFDL-ESM2M,historicalMisc,\citet{cmip5data_GFDL-ESM2M_historicalMisc}
NOAA GFDL,GFDL-ESM2M,historicalNat,\citet{cmip5data_GFDL-ESM2M_historicalNat}
NCAR,CCSM4,1pctCO2,\citet{cmip5data_CCSM4_1pctCO2}
NCAR,CCSM4,abrupt4xCO2,\citet{cmip5data_CCSM4_abrupt4xCO2}
NCAR,CCSM4,historical,\citet{cmip5data_CCSM4_historical}
NCAR,CCSM4,historicalGHG,\citet{cmip5data_CCSM4_historicalGHG}
NCAR,CCSM4,historicalMisc,\citet{cmip5data_CCSM4_historicalMisc}
NCAR,CCSM4,historicalNat,\citet{cmip5data_CCSM4_historicalNat}
NCAR,CCSM4,piControl,\citet{cmip5data_CCSM4_piControl}
NCAR,CCSM4,rcp26,\citet{cmip5data_CCSM4_rcp26}
NCAR,CCSM4,rcp45,\citet{cmip5data_CCSM4_rcp45}
NCAR,CCSM4,rcp60,\citet{cmip5data_CCSM4_rcp60}
NCAR,CCSM4,rcp85,\citet{cmip5data_CCSM4_rcp85}
CNRM-CERFACS,CNRM-CM5,1pctCO2,\citet{cmip5data_CNRM-CM5_1pctCO2}
CNRM-CERFACS,CNRM-CM5,abrupt4xCO2,\citet{cmip5data_CNRM-CM5_abrupt4xCO2}
CNRM-CERFACS,CNRM-CM5,esmFdbk1,\citet{cmip5data_CNRM-CM5_esmFdbk1}
CNRM-CERFACS,CNRM-CM5,historical,\citet{cmip5data_CNRM-CM5_historical}
CNRM-CERFACS,CNRM-CM5,historicalExt,\citet{cmip5data_CNRM-CM5_historicalExt}
CNRM-CERFACS,CNRM-CM5,historicalGHG,\citet{cmip5data_CNRM-CM5_historicalGHG}
CNRM-CERFACS,CNRM-CM5,historicalMisc,\citet{cmip5data_CNRM-CM5_historicalMisc}
CNRM-CERFACS,CNRM-CM5,historicalNat,\citet{cmip5data_CNRM-CM5_historicalNat}
CNRM-CERFACS,CNRM-CM5,piControl,\citet{cmip5data_CNRM-CM5_piControl}
CNRM-CERFACS,CNRM-CM5,rcp26,\citet{cmip5data_CNRM-CM5_rcp26}
CNRM-CERFACS,CNRM-CM5,rcp45,\citet{cmip5data_CNRM-CM5_rcp45}
CNRM-CERFACS,CNRM-CM5,rcp85,\citet{cmip5data_CNRM-CM5_rcp85}
CMCC,CMCC-CM,1pctCO2,\citet{cmip5data_CMCC-CM_1pctCO2}
CMCC,CMCC-CM,historical,\citet{cmip5data_CMCC-CM_historical}
GCESS,BNU-ESM,1pctCO2,\citet{cmip5data_BNU-ESM_1pctCO2}
GCESS,BNU-ESM,abrupt4xCO2,\citet{cmip5data_BNU-ESM_abrupt4xCO2}
GCESS,BNU-ESM,amip,\citet{cmip5data_BNU-ESM_amip}
GCESS,BNU-ESM,historical,\citet{cmip5data_BNU-ESM_historical}
GCESS,BNU-ESM,historicalGHG,\citet{cmip5data_BNU-ESM_historicalGHG}
GCESS,BNU-ESM,historicalMisc,\citet{cmip5data_BNU-ESM_historicalMisc}
GCESS,BNU-ESM,historicalNat,\citet{cmip5data_BNU-ESM_historicalNat}
GCESS,BNU-ESM,piControl,\citet{cmip5data_BNU-ESM_piControl}
GCESS,BNU-ESM,rcp26,\citet{cmip5data_BNU-ESM_rcp26}
GCESS,BNU-ESM,rcp45,\citet{cmip5data_BNU-ESM_rcp45}
GCESS,BNU-ESM,rcp85,\citet{cmip5data_BNU-ESM_rcp85}
MPI-M,MPI-ESM-LR,1pctCO2,\citet{cmip5data_MPI-ESM-LR_1pctCO2}
MPI-M,MPI-ESM-LR,abrupt4xCO2,\citet{cmip5data_MPI-ESM-LR_abrupt4xCO2}
MPI-M,MPI-ESM-LR,esmFdbk1,\citet{cmip5data_MPI-ESM-LR_esmFdbk1}
MPI-M,MPI-ESM-LR,historical,\citet{cmip5data_MPI-ESM-LR_historical}
MPI-M,MPI-ESM-LR,piControl,\citet{cmip5data_MPI-ESM-LR_piControl}
MPI-M,MPI-ESM-LR,rcp26,\citet{cmip5data_MPI-ESM-LR_rcp26}
MPI-M,MPI-ESM-LR,rcp45,\citet{cmip5data_MPI-ESM-LR_rcp45}
MPI-M,MPI-ESM-LR,rcp85,\citet{cmip5data_MPI-ESM-LR_rcp85}
LASG-CESS,FGOALS-g2,1pctCO2,\citet{cmip5data_FGOALS-g2_1pctCO2}
LASG-CESS,FGOALS-g2,abrupt4xCO2,\citet{cmip5data_FGOALS-g2_abrupt4xCO2}
LASG-CESS,FGOALS-g2,historical,\citet{cmip5data_FGOALS-g2_historical}
LASG-CESS,FGOALS-g2,historicalGHG,\citet{cmip5data_FGOALS-g2_historicalGHG}
LASG-CESS,FGOALS-g2,historicalMisc,\citet{cmip5data_FGOALS-g2_historicalMisc}
LASG-CESS,FGOALS-g2,historicalNat,\citet{cmip5data_FGOALS-g2_historicalNat}
LASG-CESS,FGOALS-g2,piControl,\citet{cmip5data_FGOALS-g2_piControl}
LASG-CESS,FGOALS-g2,rcp26,\citet{cmip5data_FGOALS-g2_rcp26}
LASG-CESS,FGOALS-g2,rcp45,\citet{cmip5data_FGOALS-g2_rcp45}
LASG-CESS,FGOALS-g2,rcp85,\citet{cmip5data_FGOALS-g2_rcp85}
MIROC,MIROC-ESM,1pctCO2,\citet{cmip5data_MIROC-ESM_1pctCO2}
MIROC,MIROC-ESM,abrupt4xCO2,\citet{cmip5data_MIROC-ESM_abrupt4xCO2}
MIROC,MIROC-ESM,esmFixClim2,\citet{cmip5data_MIROC-ESM_esmFixClim2}
MIROC,MIROC-ESM,esmHistorical,\citet{cmip5data_MIROC-ESM_esmHistorical}
MIROC,MIROC-ESM,esmrcp85,\citet{cmip5data_MIROC-ESM_esmrcp85}
MIROC,MIROC-ESM,historical,\citet{cmip5data_MIROC-ESM_historical}
MIROC,MIROC-ESM,historicalGHG,\citet{cmip5data_MIROC-ESM_historicalGHG}
MIROC,MIROC-ESM,historicalNat,\citet{cmip5data_MIROC-ESM_historicalNat}
MIROC,MIROC-ESM,piControl,\citet{cmip5data_MIROC-ESM_piControl}
MIROC,MIROC-ESM,rcp26,\citet{cmip5data_MIROC-ESM_rcp26}
MIROC,MIROC-ESM,rcp45,\citet{cmip5data_MIROC-ESM_rcp45}
MIROC,MIROC-ESM,rcp60,\citet{cmip5data_MIROC-ESM_rcp60}
MIROC,MIROC-ESM,rcp85,\citet{cmip5data_MIROC-ESM_rcp85}
MOHC,HadGEM2-ES,abrupt4xCO2,\citet{cmip5data_HadGEM2-ES_abrupt4xCO2}
CCCMA,CanCM4,historical,\citet{cmip5data_CanCM4_historical}
CCCMA,CanCM4,rcp45,\citet{cmip5data_CanCM4_rcp45}
FIO,FIO-ESM,historical,\citet{cmip5data_FIO-ESM_historical}
FIO,FIO-ESM,rcp26,\citet{cmip5data_FIO-ESM_rcp26}
FIO,FIO-ESM,rcp45,\citet{cmip5data_FIO-ESM_rcp45}
FIO,FIO-ESM,rcp60,\citet{cmip5data_FIO-ESM_rcp60}
FIO,FIO-ESM,rcp85,\citet{cmip5data_FIO-ESM_rcp85}
CMCC,CMCC-CMS,historical,\citet{cmip5data_CMCC-CMS_historical}
CMCC,CMCC-CMS,rcp45,\citet{cmip5data_CMCC-CMS_rcp45}
CMCC,CMCC-CMS,rcp85,\citet{cmip5data_CMCC-CMS_rcp85}
